{
    "editor": [
        {
            "icon": "",
            "key": "settings",
            "header": "Settings",
            "disabled": false,
            "fields": [
                {
                    "key": "image",
                    "header": "Image",
                    "type": "image"
                },
                {
                    "key": "headline",
                    "header": "Header",
                    "type": "text"
                },
                {
                    "key": "description",
                    "header": "Description",
                    "type": "text"
                },
                {
                    "key": "price",
                    "header": "Price",
                    "type": "text"
                }
            ]
        }
    ],
    "config": {
        "settings": {
            "image": "https://frontend.apps.playcent.com/7dcf2078f6f742418648c237cd1a3d20/assets/69647564_519589302123606_3104011059963363328_n.jpg",
            "headline": "Premium token",
            "description": "pay to unlock",
            "price": "1"
        }
    }
}